tooling/transcript
# vsim -do ./config/run.tcl -lib work -c -wlf ./waveform.wlf work.top 
# Loading work.top
# Loading work.alu
# Loading work.register
# do ./config/run.tcl 
# ** Warning: (vsim-WLF-5000) WLF file currently in use: ./waveform.wlf
# 
#           File in use by: gd200089d  Hostname: PROGRAMMING  ProcessID: 5264
# 
#           Attempting to use alternate WLF file "./wlftr8etwb".
# ** Warning: (vsim-WLF-5001) Could not open WLF file: ./waveform.wlf
# 
#           Using alternate file: ./wlftr8etwb
# 
# Vreme =  0, a =  0, b =  0, oc = 000 , f =  0
# Vreme =  5, a =  1, b =  0, oc = 000 , f =  1
# Vreme = 10, a =  2, b =  0, oc = 000 , f =  2
# Vreme = 15, a =  3, b =  0, oc = 000 , f =  3
# Vreme = 20, a =  4, b =  0, oc = 000 , f =  4
# Vreme = 25, a =  5, b =  0, oc = 000 , f =  5
# Vreme = 30, a =  6, b =  0, oc = 000 , f =  6
# Vreme = 35, a =  7, b =  0, oc = 000 , f =  7
# Vreme = 40, a =  8, b =  0, oc = 000 , f =  8
# Vreme = 45, a =  9, b =  0, oc = 000 , f =  9
# Vreme = 50, a = 10, b =  0, oc = 000 , f = 10
# Vreme = 55, a = 11, b =  0, oc = 000 , f = 11
# Vreme = 60, a = 12, b =  0, oc = 000 , f = 12
# Vreme = 65, a = 13, b =  0, oc = 000 , f = 13
# Vreme = 70, a = 14, b =  0, oc = 000 , f = 14
# Vreme = 75, a = 15, b =  0, oc = 000 , f = 15
# Vreme = 80, a =  0, b =  1, oc = 000 , f =  1
# Vreme = 85, a =  1, b =  1, oc = 000 , f =  2
# Vreme = 90, a =  2, b =  1, oc = 000 , f =  3
# Vreme = 95, a =  3, b =  1, oc = 000 , f =  4
# Vreme = 100, a =  4, b =  1, oc = 000 , f =  5
# Vreme = 105, a =  5, b =  1, oc = 000 , f =  6
# Vreme = 110, a =  6, b =  1, oc = 000 , f =  7
# Vreme = 115, a =  7, b =  1, oc = 000 , f =  8
# Vreme = 120, a =  8, b =  1, oc = 000 , f =  9
# Vreme = 125, a =  9, b =  1, oc = 000 , f = 10
# Vreme = 130, a = 10, b =  1, oc = 000 , f = 11
# Vreme = 135, a = 11, b =  1, oc = 000 , f = 12
# Vreme = 140, a = 12, b =  1, oc = 000 , f = 13
# Vreme = 145, a = 13, b =  1, oc = 000 , f = 14
# Vreme = 150, a = 14, b =  1, oc = 000 , f = 15
# Vreme = 155, a = 15, b =  1, oc = 000 , f =  0
# Vreme = 160, a =  0, b =  2, oc = 000 , f =  2
# Vreme = 165, a =  1, b =  2, oc = 000 , f =  3
# Vreme = 170, a =  2, b =  2, oc = 000 , f =  4
# Vreme = 175, a =  3, b =  2, oc = 000 , f =  5
# Vreme = 180, a =  4, b =  2, oc = 000 , f =  6
# Vreme = 185, a =  5, b =  2, oc = 000 , f =  7
# Vreme = 190, a =  6, b =  2, oc = 000 , f =  8
# Vreme = 195, a =  7, b =  2, oc = 000 , f =  9
# Vreme = 200, a =  8, b =  2, oc = 000 , f = 10
# Vreme = 205, a =  9, b =  2, oc = 000 , f = 11
# Vreme = 210, a = 10, b =  2, oc = 000 , f = 12
# Vreme = 215, a = 11, b =  2, oc = 000 , f = 13
# Vreme = 220, a = 12, b =  2, oc = 000 , f = 14
# Vreme = 225, a = 13, b =  2, oc = 000 , f = 15
# Vreme = 230, a = 14, b =  2, oc = 000 , f =  0
# Vreme = 235, a = 15, b =  2, oc = 000 , f =  1
# Vreme = 240, a =  0, b =  3, oc = 000 , f =  3
# Vreme = 245, a =  1, b =  3, oc = 000 , f =  4
# Vreme = 250, a =  2, b =  3, oc = 000 , f =  5
# Vreme = 255, a =  3, b =  3, oc = 000 , f =  6
# Vreme = 260, a =  4, b =  3, oc = 000 , f =  7
# Vreme = 265, a =  5, b =  3, oc = 000 , f =  8
# Vreme = 270, a =  6, b =  3, oc = 000 , f =  9
# Vreme = 275, a =  7, b =  3, oc = 000 , f = 10
# Vreme = 280, a =  8, b =  3, oc = 000 , f = 11
# Vreme = 285, a =  9, b =  3, oc = 000 , f = 12
# Vreme = 290, a = 10, b =  3, oc = 000 , f = 13
# Vreme = 295, a = 11, b =  3, oc = 000 , f = 14
# Vreme = 300, a = 12, b =  3, oc = 000 , f = 15
# Vreme = 305, a = 13, b =  3, oc = 000 , f =  0
# Vreme = 310, a = 14, b =  3, oc = 000 , f =  1
# Vreme = 315, a = 15, b =  3, oc = 000 , f =  2
# Vreme = 320, a =  0, b =  4, oc = 000 , f =  4
# Vreme = 325, a =  1, b =  4, oc = 000 , f =  5
# Vreme = 330, a =  2, b =  4, oc = 000 , f =  6
# Vreme = 335, a =  3, b =  4, oc = 000 , f =  7
# Vreme = 340, a =  4, b =  4, oc = 000 , f =  8
# Vreme = 345, a =  5, b =  4, oc = 000 , f =  9
# Vreme = 350, a =  6, b =  4, oc = 000 , f = 10
# Vreme = 355, a =  7, b =  4, oc = 000 , f = 11
# Vreme = 360, a =  8, b =  4, oc = 000 , f = 12
# Vreme = 365, a =  9, b =  4, oc = 000 , f = 13
# Vreme = 370, a = 10, b =  4, oc = 000 , f = 14
# Vreme = 375, a = 11, b =  4, oc = 000 , f = 15
# Vreme = 380, a = 12, b =  4, oc = 000 , f =  0
# Vreme = 385, a = 13, b =  4, oc = 000 , f =  1
# Vreme = 390, a = 14, b =  4, oc = 000 , f =  2
# Vreme = 395, a = 15, b =  4, oc = 000 , f =  3
# Vreme = 400, a =  0, b =  5, oc = 000 , f =  5
# Vreme = 405, a =  1, b =  5, oc = 000 , f =  6
# Vreme = 410, a =  2, b =  5, oc = 000 , f =  7
# Vreme = 415, a =  3, b =  5, oc = 000 , f =  8
# Vreme = 420, a =  4, b =  5, oc = 000 , f =  9
# Vreme = 425, a =  5, b =  5, oc = 000 , f = 10
# Vreme = 430, a =  6, b =  5, oc = 000 , f = 11
# Vreme = 435, a =  7, b =  5, oc = 000 , f = 12
# Vreme = 440, a =  8, b =  5, oc = 000 , f = 13
# Vreme = 445, a =  9, b =  5, oc = 000 , f = 14
# Vreme = 450, a = 10, b =  5, oc = 000 , f = 15
# Vreme = 455, a = 11, b =  5, oc = 000 , f =  0
# Vreme = 460, a = 12, b =  5, oc = 000 , f =  1
# Vreme = 465, a = 13, b =  5, oc = 000 , f =  2
# Vreme = 470, a = 14, b =  5, oc = 000 , f =  3
# Vreme = 475, a = 15, b =  5, oc = 000 , f =  4
# Vreme = 480, a =  0, b =  6, oc = 000 , f =  6
# Vreme = 485, a =  1, b =  6, oc = 000 , f =  7
# Vreme = 490, a =  2, b =  6, oc = 000 , f =  8
# Vreme = 495, a =  3, b =  6, oc = 000 , f =  9
# Vreme = 500, a =  4, b =  6, oc = 000 , f = 10
# Vreme = 505, a =  5, b =  6, oc = 000 , f = 11
# Vreme = 510, a =  6, b =  6, oc = 000 , f = 12
# Vreme = 515, a =  7, b =  6, oc = 000 , f = 13
# Vreme = 520, a =  8, b =  6, oc = 000 , f = 14
# Vreme = 525, a =  9, b =  6, oc = 000 , f = 15
# Vreme = 530, a = 10, b =  6, oc = 000 , f =  0
# Vreme = 535, a = 11, b =  6, oc = 000 , f =  1
# Vreme = 540, a = 12, b =  6, oc = 000 , f =  2
# Vreme = 545, a = 13, b =  6, oc = 000 , f =  3
# Vreme = 550, a = 14, b =  6, oc = 000 , f =  4
# Vreme = 555, a = 15, b =  6, oc = 000 , f =  5
# Vreme = 560, a =  0, b =  7, oc = 000 , f =  7
# Vreme = 565, a =  1, b =  7, oc = 000 , f =  8
# Vreme = 570, a =  2, b =  7, oc = 000 , f =  9
# Vreme = 575, a =  3, b =  7, oc = 000 , f = 10
# Vreme = 580, a =  4, b =  7, oc = 000 , f = 11
# Vreme = 585, a =  5, b =  7, oc = 000 , f = 12
# Vreme = 590, a =  6, b =  7, oc = 000 , f = 13
# Vreme = 595, a =  7, b =  7, oc = 000 , f = 14
# Vreme = 600, a =  8, b =  7, oc = 000 , f = 15
# Vreme = 605, a =  9, b =  7, oc = 000 , f =  0
# Vreme = 610, a = 10, b =  7, oc = 000 , f =  1
# Vreme = 615, a = 11, b =  7, oc = 000 , f =  2
# Vreme = 620, a = 12, b =  7, oc = 000 , f =  3
# Vreme = 625, a = 13, b =  7, oc = 000 , f =  4
# Vreme = 630, a = 14, b =  7, oc = 000 , f =  5
# Vreme = 635, a = 15, b =  7, oc = 000 , f =  6
# Vreme = 640, a =  0, b =  8, oc = 000 , f =  8
# Vreme = 645, a =  1, b =  8, oc = 000 , f =  9
# Vreme = 650, a =  2, b =  8, oc = 000 , f = 10
# Vreme = 655, a =  3, b =  8, oc = 000 , f = 11
# Vreme = 660, a =  4, b =  8, oc = 000 , f = 12
# Vreme = 665, a =  5, b =  8, oc = 000 , f = 13
# Vreme = 670, a =  6, b =  8, oc = 000 , f = 14
# Vreme = 675, a =  7, b =  8, oc = 000 , f = 15
# Vreme = 680, a =  8, b =  8, oc = 000 , f =  0
# Vreme = 685, a =  9, b =  8, oc = 000 , f =  1
# Vreme = 690, a = 10, b =  8, oc = 000 , f =  2
# Vreme = 695, a = 11, b =  8, oc = 000 , f =  3
# Vreme = 700, a = 12, b =  8, oc = 000 , f =  4
# Vreme = 705, a = 13, b =  8, oc = 000 , f =  5
# Vreme = 710, a = 14, b =  8, oc = 000 , f =  6
# Vreme = 715, a = 15, b =  8, oc = 000 , f =  7
# Vreme = 720, a =  0, b =  9, oc = 000 , f =  9
# Vreme = 725, a =  1, b =  9, oc = 000 , f = 10
# Vreme = 730, a =  2, b =  9, oc = 000 , f = 11
# Vreme = 735, a =  3, b =  9, oc = 000 , f = 12
# Vreme = 740, a =  4, b =  9, oc = 000 , f = 13
# Vreme = 745, a =  5, b =  9, oc = 000 , f = 14
# Vreme = 750, a =  6, b =  9, oc = 000 , f = 15
# Vreme = 755, a =  7, b =  9, oc = 000 , f =  0
# Vreme = 760, a =  8, b =  9, oc = 000 , f =  1
# Vreme = 765, a =  9, b =  9, oc = 000 , f =  2
# Vreme = 770, a = 10, b =  9, oc = 000 , f =  3
# Vreme = 775, a = 11, b =  9, oc = 000 , f =  4
# Vreme = 780, a = 12, b =  9, oc = 000 , f =  5
# Vreme = 785, a = 13, b =  9, oc = 000 , f =  6
# Vreme = 790, a = 14, b =  9, oc = 000 , f =  7
# Vreme = 795, a = 15, b =  9, oc = 000 , f =  8
# Vreme = 800, a =  0, b = 10, oc = 000 , f = 10
# Vreme = 805, a =  1, b = 10, oc = 000 , f = 11
# Vreme = 810, a =  2, b = 10, oc = 000 , f = 12
# Vreme = 815, a =  3, b = 10, oc = 000 , f = 13
# Vreme = 820, a =  4, b = 10, oc = 000 , f = 14
# Vreme = 825, a =  5, b = 10, oc = 000 , f = 15
# Vreme = 830, a =  6, b = 10, oc = 000 , f =  0
# Vreme = 835, a =  7, b = 10, oc = 000 , f =  1
# Vreme = 840, a =  8, b = 10, oc = 000 , f =  2
# Vreme = 845, a =  9, b = 10, oc = 000 , f =  3
# Vreme = 850, a = 10, b = 10, oc = 000 , f =  4
# Vreme = 855, a = 11, b = 10, oc = 000 , f =  5
# Vreme = 860, a = 12, b = 10, oc = 000 , f =  6
# Vreme = 865, a = 13, b = 10, oc = 000 , f =  7
# Vreme = 870, a = 14, b = 10, oc = 000 , f =  8
# Vreme = 875, a = 15, b = 10, oc = 000 , f =  9
# Vreme = 880, a =  0, b = 11, oc = 000 , f = 11
# Vreme = 885, a =  1, b = 11, oc = 000 , f = 12
# Vreme = 890, a =  2, b = 11, oc = 000 , f = 13
# Vreme = 895, a =  3, b = 11, oc = 000 , f = 14
# Vreme = 900, a =  4, b = 11, oc = 000 , f = 15
# Vreme = 905, a =  5, b = 11, oc = 000 , f =  0
# Vreme = 910, a =  6, b = 11, oc = 000 , f =  1
# Vreme = 915, a =  7, b = 11, oc = 000 , f =  2
# Vreme = 920, a =  8, b = 11, oc = 000 , f =  3
# Vreme = 925, a =  9, b = 11, oc = 000 , f =  4
# Vreme = 930, a = 10, b = 11, oc = 000 , f =  5
# Vreme = 935, a = 11, b = 11, oc = 000 , f =  6
# Vreme = 940, a = 12, b = 11, oc = 000 , f =  7
# Vreme = 945, a = 13, b = 11, oc = 000 , f =  8
# Vreme = 950, a = 14, b = 11, oc = 000 , f =  9
# Vreme = 955, a = 15, b = 11, oc = 000 , f = 10
# Vreme = 960, a =  0, b = 12, oc = 000 , f = 12
# Vreme = 965, a =  1, b = 12, oc = 000 , f = 13
# Vreme = 970, a =  2, b = 12, oc = 000 , f = 14
# Vreme = 975, a =  3, b = 12, oc = 000 , f = 15
# Vreme = 980, a =  4, b = 12, oc = 000 , f =  0
# Vreme = 985, a =  5, b = 12, oc = 000 , f =  1
# Vreme = 990, a =  6, b = 12, oc = 000 , f =  2
# Vreme = 995, a =  7, b = 12, oc = 000 , f =  3
# Vreme = 1000, a =  8, b = 12, oc = 000 , f =  4
# Vreme = 1005, a =  9, b = 12, oc = 000 , f =  5
# Vreme = 1010, a = 10, b = 12, oc = 000 , f =  6
# Vreme = 1015, a = 11, b = 12, oc = 000 , f =  7
# Vreme = 1020, a = 12, b = 12, oc = 000 , f =  8
# Vreme = 1025, a = 13, b = 12, oc = 000 , f =  9
# Vreme = 1030, a = 14, b = 12, oc = 000 , f = 10
# Vreme = 1035, a = 15, b = 12, oc = 000 , f = 11
# Vreme = 1040, a =  0, b = 13, oc = 000 , f = 13
# Vreme = 1045, a =  1, b = 13, oc = 000 , f = 14
# Vreme = 1050, a =  2, b = 13, oc = 000 , f = 15
# Vreme = 1055, a =  3, b = 13, oc = 000 , f =  0
# Vreme = 1060, a =  4, b = 13, oc = 000 , f =  1
# Vreme = 1065, a =  5, b = 13, oc = 000 , f =  2
# Vreme = 1070, a =  6, b = 13, oc = 000 , f =  3
# Vreme = 1075, a =  7, b = 13, oc = 000 , f =  4
# Vreme = 1080, a =  8, b = 13, oc = 000 , f =  5
# Vreme = 1085, a =  9, b = 13, oc = 000 , f =  6
# Vreme = 1090, a = 10, b = 13, oc = 000 , f =  7
# Vreme = 1095, a = 11, b = 13, oc = 000 , f =  8
# Vreme = 1100, a = 12, b = 13, oc = 000 , f =  9
# Vreme = 1105, a = 13, b = 13, oc = 000 , f = 10
# Vreme = 1110, a = 14, b = 13, oc = 000 , f = 11
# Vreme = 1115, a = 15, b = 13, oc = 000 , f = 12
# Vreme = 1120, a =  0, b = 14, oc = 000 , f = 14
# Vreme = 1125, a =  1, b = 14, oc = 000 , f = 15
# Vreme = 1130, a =  2, b = 14, oc = 000 , f =  0
# Vreme = 1135, a =  3, b = 14, oc = 000 , f =  1
# Vreme = 1140, a =  4, b = 14, oc = 000 , f =  2
# Vreme = 1145, a =  5, b = 14, oc = 000 , f =  3
# Vreme = 1150, a =  6, b = 14, oc = 000 , f =  4
# Vreme = 1155, a =  7, b = 14, oc = 000 , f =  5
# Vreme = 1160, a =  8, b = 14, oc = 000 , f =  6
# Vreme = 1165, a =  9, b = 14, oc = 000 , f =  7
# Vreme = 1170, a = 10, b = 14, oc = 000 , f =  8
# Vreme = 1175, a = 11, b = 14, oc = 000 , f =  9
# Vreme = 1180, a = 12, b = 14, oc = 000 , f = 10
# Vreme = 1185, a = 13, b = 14, oc = 000 , f = 11
# Vreme = 1190, a = 14, b = 14, oc = 000 , f = 12
# Vreme = 1195, a = 15, b = 14, oc = 000 , f = 13
# Vreme = 1200, a =  0, b = 15, oc = 000 , f = 15
# Vreme = 1205, a =  1, b = 15, oc = 000 , f =  0
# Vreme = 1210, a =  2, b = 15, oc = 000 , f =  1
# Vreme = 1215, a =  3, b = 15, oc = 000 , f =  2
# Vreme = 1220, a =  4, b = 15, oc = 000 , f =  3
# Vreme = 1225, a =  5, b = 15, oc = 000 , f =  4
# Vreme = 1230, a =  6, b = 15, oc = 000 , f =  5
# Vreme = 1235, a =  7, b = 15, oc = 000 , f =  6
# Vreme = 1240, a =  8, b = 15, oc = 000 , f =  7
# Vreme = 1245, a =  9, b = 15, oc = 000 , f =  8
# Vreme = 1250, a = 10, b = 15, oc = 000 , f =  9
# Vreme = 1255, a = 11, b = 15, oc = 000 , f = 10
# Vreme = 1260, a = 12, b = 15, oc = 000 , f = 11
# Vreme = 1265, a = 13, b = 15, oc = 000 , f = 12
# Vreme = 1270, a = 14, b = 15, oc = 000 , f = 13
# Vreme = 1275, a = 15, b = 15, oc = 000 , f = 14
# Vreme = 1280, a =  0, b =  0, oc = 001 , f =  0
# Vreme = 1285, a =  1, b =  0, oc = 001 , f =  1
# Vreme = 1290, a =  2, b =  0, oc = 001 , f =  2
# Vreme = 1295, a =  3, b =  0, oc = 001 , f =  3
# Vreme = 1300, a =  4, b =  0, oc = 001 , f =  4
# Vreme = 1305, a =  5, b =  0, oc = 001 , f =  5
# Vreme = 1310, a =  6, b =  0, oc = 001 , f =  6
# Vreme = 1315, a =  7, b =  0, oc = 001 , f =  7
# Vreme = 1320, a =  8, b =  0, oc = 001 , f =  8
# Vreme = 1325, a =  9, b =  0, oc = 001 , f =  9
# Vreme = 1330, a = 10, b =  0, oc = 001 , f = 10
# Vreme = 1335, a = 11, b =  0, oc = 001 , f = 11
# Vreme = 1340, a = 12, b =  0, oc = 001 , f = 12
# Vreme = 1345, a = 13, b =  0, oc = 001 , f = 13
# Vreme = 1350, a = 14, b =  0, oc = 001 , f = 14
# Vreme = 1355, a = 15, b =  0, oc = 001 , f = 15
# Vreme = 1360, a =  0, b =  1, oc = 001 , f = 15
# Vreme = 1365, a =  1, b =  1, oc = 001 , f =  0
# Vreme = 1370, a =  2, b =  1, oc = 001 , f =  1
# Vreme = 1375, a =  3, b =  1, oc = 001 , f =  2
# Vreme = 1380, a =  4, b =  1, oc = 001 , f =  3
# Vreme = 1385, a =  5, b =  1, oc = 001 , f =  4
# Vreme = 1390, a =  6, b =  1, oc = 001 , f =  5
# Vreme = 1395, a =  7, b =  1, oc = 001 , f =  6
# Vreme = 1400, a =  8, b =  1, oc = 001 , f =  7
# Vreme = 1405, a =  9, b =  1, oc = 001 , f =  8
# Vreme = 1410, a = 10, b =  1, oc = 001 , f =  9
# Vreme = 1415, a = 11, b =  1, oc = 001 , f = 10
# Vreme = 1420, a = 12, b =  1, oc = 001 , f = 11
# Vreme = 1425, a = 13, b =  1, oc = 001 , f = 12
# Vreme = 1430, a = 14, b =  1, oc = 001 , f = 13
# Vreme = 1435, a = 15, b =  1, oc = 001 , f = 14
# Vreme = 1440, a =  0, b =  2, oc = 001 , f = 14
# Vreme = 1445, a =  1, b =  2, oc = 001 , f = 15
# Vreme = 1450, a =  2, b =  2, oc = 001 , f =  0
# Vreme = 1455, a =  3, b =  2, oc = 001 , f =  1
# Vreme = 1460, a =  4, b =  2, oc = 001 , f =  2
# Vreme = 1465, a =  5, b =  2, oc = 001 , f =  3
# Vreme = 1470, a =  6, b =  2, oc = 001 , f =  4
# Vreme = 1475, a =  7, b =  2, oc = 001 , f =  5
# Vreme = 1480, a =  8, b =  2, oc = 001 , f =  6
# Vreme = 1485, a =  9, b =  2, oc = 001 , f =  7
# Vreme = 1490, a = 10, b =  2, oc = 001 , f =  8
# Vreme = 1495, a = 11, b =  2, oc = 001 , f =  9
# Vreme = 1500, a = 12, b =  2, oc = 001 , f = 10
# Vreme = 1505, a = 13, b =  2, oc = 001 , f = 11
# Vreme = 1510, a = 14, b =  2, oc = 001 , f = 12
# Vreme = 1515, a = 15, b =  2, oc = 001 , f = 13
# Vreme = 1520, a =  0, b =  3, oc = 001 , f = 13
# Vreme = 1525, a =  1, b =  3, oc = 001 , f = 14
# Vreme = 1530, a =  2, b =  3, oc = 001 , f = 15
# Vreme = 1535, a =  3, b =  3, oc = 001 , f =  0
# Vreme = 1540, a =  4, b =  3, oc = 001 , f =  1
# Vreme = 1545, a =  5, b =  3, oc = 001 , f =  2
# Vreme = 1550, a =  6, b =  3, oc = 001 , f =  3
# Vreme = 1555, a =  7, b =  3, oc = 001 , f =  4
# Vreme = 1560, a =  8, b =  3, oc = 001 , f =  5
# Vreme = 1565, a =  9, b =  3, oc = 001 , f =  6
# Vreme = 1570, a = 10, b =  3, oc = 001 , f =  7
# Vreme = 1575, a = 11, b =  3, oc = 001 , f =  8
# Vreme = 1580, a = 12, b =  3, oc = 001 , f =  9
# Vreme = 1585, a = 13, b =  3, oc = 001 , f = 10
# Vreme = 1590, a = 14, b =  3, oc = 001 , f = 11
# Vreme = 1595, a = 15, b =  3, oc = 001 , f = 12
# Vreme = 1600, a =  0, b =  4, oc = 001 , f = 12
# Vreme = 1605, a =  1, b =  4, oc = 001 , f = 13
# Vreme = 1610, a =  2, b =  4, oc = 001 , f = 14
# Vreme = 1615, a =  3, b =  4, oc = 001 , f = 15
# Vreme = 1620, a =  4, b =  4, oc = 001 , f =  0
# Vreme = 1625, a =  5, b =  4, oc = 001 , f =  1
# Vreme = 1630, a =  6, b =  4, oc = 001 , f =  2
# Vreme = 1635, a =  7, b =  4, oc = 001 , f =  3
# Vreme = 1640, a =  8, b =  4, oc = 001 , f =  4
# Vreme = 1645, a =  9, b =  4, oc = 001 , f =  5
# Vreme = 1650, a = 10, b =  4, oc = 001 , f =  6
# Vreme = 1655, a = 11, b =  4, oc = 001 , f =  7
# Vreme = 1660, a = 12, b =  4, oc = 001 , f =  8
# Vreme = 1665, a = 13, b =  4, oc = 001 , f =  9
# Vreme = 1670, a = 14, b =  4, oc = 001 , f = 10
# Vreme = 1675, a = 15, b =  4, oc = 001 , f = 11
# Vreme = 1680, a =  0, b =  5, oc = 001 , f = 11
# Vreme = 1685, a =  1, b =  5, oc = 001 , f = 12
# Vreme = 1690, a =  2, b =  5, oc = 001 , f = 13
# Vreme = 1695, a =  3, b =  5, oc = 001 , f = 14
# Vreme = 1700, a =  4, b =  5, oc = 001 , f = 15
# Vreme = 1705, a =  5, b =  5, oc = 001 , f =  0
# Vreme = 1710, a =  6, b =  5, oc = 001 , f =  1
# Vreme = 1715, a =  7, b =  5, oc = 001 , f =  2
# Vreme = 1720, a =  8, b =  5, oc = 001 , f =  3
# Vreme = 1725, a =  9, b =  5, oc = 001 , f =  4
# Vreme = 1730, a = 10, b =  5, oc = 001 , f =  5
# Vreme = 1735, a = 11, b =  5, oc = 001 , f =  6
# Vreme = 1740, a = 12, b =  5, oc = 001 , f =  7
# Vreme = 1745, a = 13, b =  5, oc = 001 , f =  8
# Vreme = 1750, a = 14, b =  5, oc = 001 , f =  9
# Vreme = 1755, a = 15, b =  5, oc = 001 , f = 10
# Vreme = 1760, a =  0, b =  6, oc = 001 , f = 10
# Vreme = 1765, a =  1, b =  6, oc = 001 , f = 11
# Vreme = 1770, a =  2, b =  6, oc = 001 , f = 12
# Vreme = 1775, a =  3, b =  6, oc = 001 , f = 13
# Vreme = 1780, a =  4, b =  6, oc = 001 , f = 14
# Vreme = 1785, a =  5, b =  6, oc = 001 , f = 15
# Vreme = 1790, a =  6, b =  6, oc = 001 , f =  0
# Vreme = 1795, a =  7, b =  6, oc = 001 , f =  1
# Vreme = 1800, a =  8, b =  6, oc = 001 , f =  2
# Vreme = 1805, a =  9, b =  6, oc = 001 , f =  3
# Vreme = 1810, a = 10, b =  6, oc = 001 , f =  4
# Vreme = 1815, a = 11, b =  6, oc = 001 , f =  5
# Vreme = 1820, a = 12, b =  6, oc = 001 , f =  6
# Vreme = 1825, a = 13, b =  6, oc = 001 , f =  7
# Vreme = 1830, a = 14, b =  6, oc = 001 , f =  8
# Vreme = 1835, a = 15, b =  6, oc = 001 , f =  9
# Vreme = 1840, a =  0, b =  7, oc = 001 , f =  9
# Vreme = 1845, a =  1, b =  7, oc = 001 , f = 10
# Vreme = 1850, a =  2, b =  7, oc = 001 , f = 11
# Vreme = 1855, a =  3, b =  7, oc = 001 , f = 12
# Vreme = 1860, a =  4, b =  7, oc = 001 , f = 13
# Vreme = 1865, a =  5, b =  7, oc = 001 , f = 14
# Vreme = 1870, a =  6, b =  7, oc = 001 , f = 15
# Vreme = 1875, a =  7, b =  7, oc = 001 , f =  0
# Vreme = 1880, a =  8, b =  7, oc = 001 , f =  1
# Vreme = 1885, a =  9, b =  7, oc = 001 , f =  2
# Vreme = 1890, a = 10, b =  7, oc = 001 , f =  3
# Vreme = 1895, a = 11, b =  7, oc = 001 , f =  4
# Vreme = 1900, a = 12, b =  7, oc = 001 , f =  5
# Vreme = 1905, a = 13, b =  7, oc = 001 , f =  6
# Vreme = 1910, a = 14, b =  7, oc = 001 , f =  7
# Vreme = 1915, a = 15, b =  7, oc = 001 , f =  8
# Vreme = 1920, a =  0, b =  8, oc = 001 , f =  8
# Vreme = 1925, a =  1, b =  8, oc = 001 , f =  9
# Vreme = 1930, a =  2, b =  8, oc = 001 , f = 10
# Vreme = 1935, a =  3, b =  8, oc = 001 , f = 11
# Vreme = 1940, a =  4, b =  8, oc = 001 , f = 12
# Vreme = 1945, a =  5, b =  8, oc = 001 , f = 13
# Vreme = 1950, a =  6, b =  8, oc = 001 , f = 14
# Vreme = 1955, a =  7, b =  8, oc = 001 , f = 15
# Vreme = 1960, a =  8, b =  8, oc = 001 , f =  0
# Vreme = 1965, a =  9, b =  8, oc = 001 , f =  1
# Vreme = 1970, a = 10, b =  8, oc = 001 , f =  2
# Vreme = 1975, a = 11, b =  8, oc = 001 , f =  3
# Vreme = 1980, a = 12, b =  8, oc = 001 , f =  4
# Vreme = 1985, a = 13, b =  8, oc = 001 , f =  5
# Vreme = 1990, a = 14, b =  8, oc = 001 , f =  6
# Vreme = 1995, a = 15, b =  8, oc = 001 , f =  7
# Vreme = 2000, a =  0, b =  9, oc = 001 , f =  7
# Vreme = 2005, a =  1, b =  9, oc = 001 , f =  8
# Vreme = 2010, a =  2, b =  9, oc = 001 , f =  9
# Vreme = 2015, a =  3, b =  9, oc = 001 , f = 10
# Vreme = 2020, a =  4, b =  9, oc = 001 , f = 11
# Vreme = 2025, a =  5, b =  9, oc = 001 , f = 12
# Vreme = 2030, a =  6, b =  9, oc = 001 , f = 13
# Vreme = 2035, a =  7, b =  9, oc = 001 , f = 14
# Vreme = 2040, a =  8, b =  9, oc = 001 , f = 15
# Vreme = 2045, a =  9, b =  9, oc = 001 , f =  0
# Vreme = 2050, a = 10, b =  9, oc = 001 , f =  1
# Vreme = 2055, a = 11, b =  9, oc = 001 , f =  2
# Vreme = 2060, a = 12, b =  9, oc = 001 , f =  3
# Vreme = 2065, a = 13, b =  9, oc = 001 , f =  4
# Vreme = 2070, a = 14, b =  9, oc = 001 , f =  5
# Vreme = 2075, a = 15, b =  9, oc = 001 , f =  6
# Vreme = 2080, a =  0, b = 10, oc = 001 , f =  6
# Vreme = 2085, a =  1, b = 10, oc = 001 , f =  7
# Vreme = 2090, a =  2, b = 10, oc = 001 , f =  8
# Vreme = 2095, a =  3, b = 10, oc = 001 , f =  9
# Vreme = 2100, a =  4, b = 10, oc = 001 , f = 10
# Vreme = 2105, a =  5, b = 10, oc = 001 , f = 11
# Vreme = 2110, a =  6, b = 10, oc = 001 , f = 12
# Vreme = 2115, a =  7, b = 10, oc = 001 , f = 13
# Vreme = 2120, a =  8, b = 10, oc = 001 , f = 14
# Vreme = 2125, a =  9, b = 10, oc = 001 , f = 15
# Vreme = 2130, a = 10, b = 10, oc = 001 , f =  0
# Vreme = 2135, a = 11, b = 10, oc = 001 , f =  1
# Vreme = 2140, a = 12, b = 10, oc = 001 , f =  2
# Vreme = 2145, a = 13, b = 10, oc = 001 , f =  3
# Vreme = 2150, a = 14, b = 10, oc = 001 , f =  4
# Vreme = 2155, a = 15, b = 10, oc = 001 , f =  5
# Vreme = 2160, a =  0, b = 11, oc = 001 , f =  5
# Vreme = 2165, a =  1, b = 11, oc = 001 , f =  6
# Vreme = 2170, a =  2, b = 11, oc = 001 , f =  7
# Vreme = 2175, a =  3, b = 11, oc = 001 , f =  8
# Vreme = 2180, a =  4, b = 11, oc = 001 , f =  9
# Vreme = 2185, a =  5, b = 11, oc = 001 , f = 10
# Vreme = 2190, a =  6, b = 11, oc = 001 , f = 11
# Vreme = 2195, a =  7, b = 11, oc = 001 , f = 12
# Vreme = 2200, a =  8, b = 11, oc = 001 , f = 13
# Vreme = 2205, a =  9, b = 11, oc = 001 , f = 14
# Vreme = 2210, a = 10, b = 11, oc = 001 , f = 15
# Vreme = 2215, a = 11, b = 11, oc = 001 , f =  0
# Vreme = 2220, a = 12, b = 11, oc = 001 , f =  1
# Vreme = 2225, a = 13, b = 11, oc = 001 , f =  2
# Vreme = 2230, a = 14, b = 11, oc = 001 , f =  3
# Vreme = 2235, a = 15, b = 11, oc = 001 , f =  4
# Vreme = 2240, a =  0, b = 12, oc = 001 , f =  4
# Vreme = 2245, a =  1, b = 12, oc = 001 , f =  5
# Vreme = 2250, a =  2, b = 12, oc = 001 , f =  6
# Vreme = 2255, a =  3, b = 12, oc = 001 , f =  7
# Vreme = 2260, a =  4, b = 12, oc = 001 , f =  8
# Vreme = 2265, a =  5, b = 12, oc = 001 , f =  9
# Vreme = 2270, a =  6, b = 12, oc = 001 , f = 10
# Vreme = 2275, a =  7, b = 12, oc = 001 , f = 11
# Vreme = 2280, a =  8, b = 12, oc = 001 , f = 12
# Vreme = 2285, a =  9, b = 12, oc = 001 , f = 13
# Vreme = 2290, a = 10, b = 12, oc = 001 , f = 14
# Vreme = 2295, a = 11, b = 12, oc = 001 , f = 15
# Vreme = 2300, a = 12, b = 12, oc = 001 , f =  0
# Vreme = 2305, a = 13, b = 12, oc = 001 , f =  1
# Vreme = 2310, a = 14, b = 12, oc = 001 , f =  2
# Vreme = 2315, a = 15, b = 12, oc = 001 , f =  3
# Vreme = 2320, a =  0, b = 13, oc = 001 , f =  3
# Vreme = 2325, a =  1, b = 13, oc = 001 , f =  4
